港股開高170點 晶片股走強
2019年01月11日 10:39
美國加息預期降溫，港股11日開高超過百點，恒指開高170點或0.6％，報26,692.02點，國企指數開高53點，報10,447點。

受大陸發放5G臨時牌照消息影響，晶片股集體開高。華虹半導體，中芯國際分別高開2.1％，0.8％，中興通訊高開2.3％。比亞迪電子，丘鈦科技，瑞聲科技，富智康分別高開2％，2.4％，2.5％，1.2％。
(工商 )