寶成去年度合併營收 創歷史新高
2019年01月10日 23:15
寶成工業（9904）10日公布自結107年12月合併營收為258.38億元、年增7.2％，累計107年度合併營收為2,934.66億元、年增5.3％，創歷史新高。寶成表示，這可歸功於持股50.97％的香港上市公司裕元工業營運，較106年度保持增長。

寶成說，自結107第4季合併營收787.57億元、年增8.3％，也創單季歷史新高。

裕元自結107年12月營收為8.48億美元，折合約新台幣257.68億元、年增6.7％，累計107年度營收為97億美元、年增6.4％。

另由裕元零售事業獨立分拆上市的寶勝國際，自結12月營收為人民幣20.01億元，折合約3.02億美元、年增18.3％，累計107年度營收為人民幣226.78億元，折合約34.27億美元、年增20.4％。

寶成表示，107年底，旗下裕元對寶勝持股比率為62.33％，寶勝在大陸及台灣通路營運持續加強後，仍看好108年營運前景，有助於裕元的營收成長。
(工商 )