,日期,成交股數,成交金額,開盤價,最高價,最低價,收盤價,漲跌價差,成交筆數,Unnamed: 9
0,107/01/02,"16,608,150","236,518,771",14.2,14.3,14.15,14.25,0.05,"3,318",
1,107/01/03,"56,967,186","825,515,154",14.4,14.6,14.35,14.4,0.15,"8,924",
2,107/01/04,"32,656,466","467,537,204",14.4,14.5,14.25,14.35,-0.05,"8,872",
3,107/01/05,"41,523,319","601,312,825",14.4,14.55,14.35,14.55,0.2,"5,121",
4,107/01/08,"49,586,538","726,422,040",14.55,14.7,14.45,14.7,0.15,"8,480",
5,107/01/09,"27,627,671","405,089,588",14.65,14.75,14.55,14.75,0.05,"5,113",
6,107/01/10,"55,622,915","796,798,187",14.65,14.7,14.1,14.2,-0.55,"10,158",
7,107/01/11,"51,795,611","728,106,044",14.15,14.2,13.9,14.0,-0.2,"9,104",
8,107/01/12,"51,589,480","732,299,836",14.05,14.3,14.0,14.2,0.2,"5,529",
9,107/01/15,"21,464,684","306,084,593",14.25,14.35,14.2,14.3,0.1,"2,560",
10,107/01/16,"26,699,657","380,093,948",14.3,14.3,14.15,14.3,0.0,"3,669",
11,107/01/17,"26,465,563","378,020,534",14.2,14.35,14.15,14.3,0.0,"6,466",
12,107/01/18,"40,184,881","576,582,880",14.3,14.4,14.3,14.3,0.0,"6,872",
13,107/01/19,"33,002,588","467,609,556",14.35,14.35,14.05,14.2,-0.1,"4,969",
14,107/01/22,"79,063,371","1,111,239,674",14.15,14.25,13.95,14.0,-0.2,"8,644",
15,107/01/23,"149,322,801","2,158,202,655",14.1,14.85,14.05,14.6,0.6,"19,585",
16,107/01/24,"69,620,583","1,002,047,593",14.5,14.6,14.3,14.4,-0.2,"10,606",
17,107/01/25,"162,032,761","2,393,378,021",14.6,15.1,14.5,14.5,0.1,"21,184",
18,107/01/26,"75,870,231","1,101,431,999",14.6,14.65,14.35,14.6,0.1,"11,597",
19,107/01/29,"60,472,966","885,474,762",14.75,14.85,14.45,14.55,-0.05,"11,216",
20,107/01/30,"33,310,846","483,189,327",14.55,14.65,14.4,14.45,-0.1,"4,638",
21,107/01/31,"75,685,233","1,080,158,222",14.4,14.4,14.2,14.25,-0.2,"6,692",
22,說明:,,,,,,,,,
23,符號說明:+/-/X表示漲/跌/不比價,,,,,,,,,
24,當日統計資訊含一般、零股、盤後定價、鉅額交易，不含拍賣、標購。,,,,,,,,,
25,ETF證券代號第六碼為K、M、S、C者，表示該ETF以外幣交易。,,,,,,,,,
